…
## Question 2: Identifying Representative Stations per State

Now let’s find the weather stations by state with closest temperature
and wind speed based on the euclidean distance from these medians.

``` r
closest_temp_wind <- met_merged %>%
  mutate(dist_to_med = sqrt((temp-median_temp)^2+(wind.sp-median_wind.sp)^2)) %>%
  select(USAFID, STATE, dist_to_med, lat, lon) %>%
  group_by(STATE) %>%
  slice_min(order_by=dist_to_med, n=1, with_ties=FALSE)
closest_temp_wind
```

    ## # A tibble: 48 × 5
    ## # Groups:   STATE [48]
    ##    USAFID STATE dist_to_med   lat    lon
    ##     <int> <chr>       <dbl> <dbl>  <dbl>
    ##  1 720307 AL              0  34.9  -86.6
    ##  2 720175 AR              0  33.6  -91.8
    ##  3 722720 AZ              0  31.5 -110. 
    ##  4 690150 CA              0  34.3 -116. 
    ##  5 720538 CO              0  40.2 -105. 
    ##  6 725027 CT              0  41.5  -72.8
    ##  7 724093 DE              0  38.7  -75.4
    ##  8 720383 FL              0  30.7  -87.0
    ##  9 720263 GA              0  34.1  -82.8
    ## 10 720293 IA              0  42.5  -91.9
    ## # ℹ 38 more rows
…
